Geography 176A
…
PopulationEstimates = read_excel("/users/noblex/github/geog-176A-labs/data/PopulationEstimates.xls", skip = 2)

#Question 1

state.of.interest = "California"

(state_covid = covid %>%
  filter(state == state.of.interest) %>%
  group_by(county) %>%
  mutate(newCases = cases - lag(cases)) %>%
  ungroup())

## # A tibble: 8,681 x 7
##    date       county      state      fips  cases deaths newCases
##    <date>     <chr>       <chr>      <chr> <dbl>  <dbl>    <dbl>
##  1 2020-01-25 Orange      California 06059     1      0       NA
##  2 2020-01-26 Los Angeles California 06037     1      0       NA
##  3 2020-01-26 Orange      California 06059     1      0        0
##  4 2020-01-27 Los Angeles California 06037     1      0        0
##  5 2020-01-27 Orange      California 06059     1      0        0
##  6 2020-01-28 Los Angeles California 06037     1      0        0
##  7 2020-01-28 Orange      California 06059     1      0        0
##  8 2020-01-29 Los Angeles California 06037     1      0        0
##  9 2020-01-29 Orange      California 06059     1      0        0
## 10 2020-01-30 Los Angeles California 06037     1      0        0
## #  with 8,671 more rows
…
San Bernardino
38,811

San Diego
33,722

(pop_by_county = PopulationEstimates %>%
    filter(State == "CA") %>%
    select(pop19 = POP_ESTIMATE_2019, state = State, county = Area_Name, fips = FIPStxt) %>%
    group_by(county) %>%
    slice_max(pop19, n=1))

## # A tibble: 59 x 4
## # Groups:   county [59]
##       pop19 state county              fips 
##       <dbl> <chr> <chr>               <chr>
##  1  1671329 CA    Alameda County      06001
##  2     1129 CA    Alpine County       06003
##  3    39752 CA    Amador County       06005
##  4   219186 CA    Butte County        06007
##  5    45905 CA    Calaveras County    06009
##  6 39512223 CA    California          06000
##  7    21547 CA    Colusa County       06011
##  8  1153526 CA    Contra Costa County 06013
##  9    27812 CA    Del Norte County    06015
## 10   192843 CA    El Dorado County    06017
## #  with 49 more rows
…
covid_pop = right_join(pop_by_county, state_covid, by = "fips")

(newCases_last14days_per100000 = covid_pop %>%
  filter(date > max(date) - 14, date < max(date)) %>%
  select(county = county.y, newCases, pop19, date) %>%
  group_by(county, pop19) %>%
  summarise(newCases = sum(newCases, na.rm = TRUE)) %>%
  ungroup() %>%
  mutate(pop_per_100000 = (pop19/100000), newCases_per100000 = (newCases/pop_per_100000)))

## `summarise()` regrouping output by 'county' (override with `.groups` argument)

## # A tibble: 58 x 5
##    county         pop19 newCases pop_per_100000 newCases_per100000
##    <chr>          <dbl>    <dbl>          <dbl>              <dbl>
##  1 Alameda      1671329     2922        16.7                 175. 
##  2 Alpine          1129        0         0.0113                0  
##  3 Amador         39752       83         0.398               209. 
##  4 Butte         219186      398         2.19                182. 
##  5 Calaveras      45905       53         0.459               115. 
##  6 Colusa         21547       85         0.215               394. 
##  7 Contra Costa 1153526     2526        11.5                 219. 
##  8 Del Norte      27812       16         0.278                57.5
##  9 El Dorado     192843      180         1.93                 93.3
## 10 Fresno        999101     4032         9.99                404. 
## #  with 48 more rows
…
